example/ibex_id_stage/ibex_id_stage.vcd
$date
	Fri Apr 10 00:00:44 2020
$end
$version
	Icarus Verilog
$end
$timescale
	1ps
$end
$scope module ibex_id_stage_bench $end
$scope module ibex_id_stage_ $end
$var wire 32 ! alu_operand_a_ex_o [31:0] $end
$var wire 32 " alu_operand_b_ex_o [31:0] $end
$var wire 5 # alu_operator_ex_o [4:0] $end
$var wire 1 $ branch_decision_i $end
$var wire 1 % clk_i $end
$var wire 1 & csr_meip_i $end
$var wire 15 ' csr_mfip_i [14:0] $end
$var wire 1 ( csr_msip_i $end
$var wire 1 ) csr_mstatus_mie_i $end
$var wire 1 * csr_mstatus_tw_i $end
$var wire 1 + csr_mtip_i $end
$var wire 32 , csr_rdata_i [31:0] $end
$var wire 1 - data_req_ex_o $end
$var wire 1 . data_sign_ext_ex_o $end
$var wire 2 / data_type_ex_o [1:0] $end
$var wire 32 0 data_wdata_ex_o [31:0] $end
$var wire 1 1 data_we_ex_o $end
$var wire 1 2 debug_ebreakm_i $end
$var wire 1 3 debug_ebreaku_i $end
$var wire 1 4 debug_req_i $end
$var wire 1 5 debug_single_step_i $end
$var wire 1 6 div_en_ex_o $end
$var wire 1 7 ex_valid_i $end
$var wire 1 8 fetch_enable_i $end
$var wire 1 9 illegal_c_insn_i $end
$var wire 1 : illegal_csr_insn_i $end
$var wire 1 ; illegal_insn_o $end
$var wire 1 < instr_executing $end
$var wire 1 = instr_fetch_err_i $end
$var wire 1 > instr_is_compressed_i $end
$var wire 1 ? instr_multicycle $end
$var wire 1 @ instr_new_i $end
$var wire 16 A instr_rdata_c_i [15:0] $end
$var wire 32 B instr_rdata_i [31:0] $end
$var wire 1 C instr_ret_compressed_o $end
$var wire 1 D instr_valid_i $end
$var wire 1 E irq_nm_i $end
$var wire 1 F irq_pending_i $end
$var wire 1 G lsu_addr_incr_req_i $end
$var wire 32 H lsu_addr_last_i [31:0] $end
$var wire 1 I lsu_load_err_i $end
$var wire 1 J lsu_store_err_i $end
$var wire 1 K lsu_valid_i $end
$var wire 1 L mult_en_ex_o $end
$var wire 1 M multdiv_en_dec $end
$var wire 32 N multdiv_operand_a_ex_o [31:0] $end
$var wire 32 O multdiv_operand_b_ex_o [31:0] $end
$var wire 2 P multdiv_operator_ex_o [1:0] $end
$var wire 2 Q multdiv_signed_mode_ex_o [1:0] $end
$var wire 32 R pc_id_i [31:0] $end
$var wire 2 S priv_mode_i [1:0] $end
$var wire 32 T regfile_wdata_ex_i [31:0] $end
$var wire 32 U regfile_wdata_lsu_i [31:0] $end
$var wire 5 V rfvi_reg_raddr_ra_o [4:0] $end
$var wire 5 W rfvi_reg_raddr_rb_o [4:0] $end
$var wire 32 X rfvi_reg_rdata_ra_o [31:0] $end
$var wire 32 Y rfvi_reg_rdata_rb_o [31:0] $end
$var wire 5 Z rfvi_reg_waddr_rd_o [4:0] $end
$var wire 32 [ rfvi_reg_wdata_rd_o [31:0] $end
$var wire 1 \ rfvi_reg_we_o $end
$var wire 1 ] rst_ni $end
$var wire 1 ^ test_en_i $end
$var wire 32 _ zimm_rs1_type [31:0] $end
$var wire 1 ` wfi_insn_dec $end
$var wire 1 a regfile_we_dec $end
$var wire 1 b regfile_we $end
$var wire 2 c regfile_wdata_sel [1:0] $end
$var wire 5 d regfile_waddr [4:0] $end
$var wire 32 e regfile_rdata_b [31:0] $end
$var wire 32 f regfile_rdata_a [31:0] $end
$var wire 5 g regfile_raddr_b [4:0] $end
$var wire 5 h regfile_raddr_a [4:0] $end
$var wire 1 i perf_tbranch_o $end
$var wire 1 j perf_jump_o $end
$var wire 1 k pc_set_o $end
$var wire 3 l pc_mux_o [2:0] $end
$var wire 2 m multdiv_signed_mode [1:0] $end
$var wire 2 n multdiv_operator [1:0] $end
$var wire 1 o mult_en_id $end
$var wire 1 p mult_en_dec $end
$var wire 1 q mret_insn_dec $end
$var wire 1 r jump_set $end
$var wire 1 s jump_in_dec $end
$var wire 1 t instr_valid_clear_o $end
$var wire 1 u instr_req_o $end
$var wire 32 v imm_u_type [31:0] $end
$var wire 32 w imm_s_type [31:0] $end
$var wire 32 x imm_j_type [31:0] $end
$var wire 32 y imm_i_type [31:0] $end
$var wire 32 z imm_b_type [31:0] $end
$var wire 3 { imm_b_mux_sel_dec [2:0] $end
$var wire 3 | imm_b_mux_sel [2:0] $end
$var wire 1 } imm_a_mux_sel $end
$var wire 32 ~ imm_a [31:0] $end
$var wire 1 !" illegal_insn_dec $end
$var wire 1 "" id_in_ready_o $end
$var wire 2 #" exc_pc_mux_o [1:0] $end
$var wire 6 $" exc_cause_o [5:0] $end
$var wire 1 %" ecall_insn_dec $end
$var wire 1 &" ebrk_insn $end
$var wire 1 '" dret_insn_dec $end
$var wire 1 (" div_en_id $end
$var wire 1 )" div_en_dec $end
$var wire 1 *" debug_mode_o $end
$var wire 1 +" debug_csr_save_o $end
$var wire 3 ," debug_cause_o [2:0] $end
$var wire 1 -" data_we_id $end
$var wire 2 ." data_type_id [1:0] $end
$var wire 1 /" data_sign_ext_id $end
$var wire 1 0" data_req_id $end
$var wire 1 1" data_req_dec $end
$var wire 1 2" ctrl_busy_o $end
$var wire 1 3" csr_save_if_o $end
$var wire 1 4" csr_save_id_o $end
$var wire 1 5" csr_save_cause_o $end
$var wire 1 6" csr_restore_mret_id_o $end
$var wire 1 7" csr_restore_dret_id_o $end
$var wire 1 8" csr_pipe_flush $end
$var wire 2 9" csr_op_o [1:0] $end
$var wire 32 :" csr_mtval_o [31:0] $end
$var wire 1 ;" csr_access_o $end
$var wire 1 <" branch_in_dec $end
$var wire 5 =" alu_operator [4:0] $end
$var wire 32 >" alu_operand_b [31:0] $end
$var wire 1 ?" alu_op_b_mux_sel_dec $end
$var wire 1 @" alu_op_b_mux_sel $end
$var wire 2 A" alu_op_a_mux_sel_dec [1:0] $end
$var wire 2 B" alu_op_a_mux_sel [1:0] $end
$var reg 32 C" alu_operand_a [31:0] $end
$var reg 1 D" branch_set_n $end
$var reg 1 E" branch_set_q $end
$var reg 1 F" id_wb_fsm_cs $end
$var reg 1 G" id_wb_fsm_ns $end
$var reg 32 H" imm_b [31:0] $end
$var reg 1 I" instr_multicycle_done_n $end
$var reg 1 J" instr_multicycle_done_q $end
$var reg 1 K" instr_ret_o $end
$var reg 1 L" perf_branch_o $end
$var reg 32 M" regfile_wdata [31:0] $end
$var reg 1 N" regfile_we_wb $end
$var reg 1 O" stall_branch $end
$var reg 1 P" stall_jump $end
$var reg 1 Q" stall_lsu $end
$var reg 1 R" stall_multdiv $end
$scope module controller_i $end
$var wire 1 E" branch_set_i $end
$var wire 1 % clk_i $end
$var wire 1 & csr_meip_i $end
$var wire 15 S" csr_mfip_i [14:0] $end
$var wire 1 ( csr_msip_i $end
$var wire 1 ) csr_mstatus_mie_i $end
$var wire 1 * csr_mstatus_tw_i $end
$var wire 1 + csr_mtip_i $end
$var wire 1 T" csr_pipe_flush $end
$var wire 1 2 debug_ebreakm_i $end
$var wire 1 3 debug_ebreaku_i $end
$var wire 1 *" debug_mode_o $end
$var wire 1 4 debug_req_i $end
$var wire 1 5 debug_single_step_i $end
$var wire 1 U" dret_insn $end
$var wire 1 V" ebrk_insn $end
$var wire 1 W" ecall_insn $end
$var wire 1 X" enter_debug_mode $end
$var wire 1 Y" exc_req_d $end
$var wire 1 Z" exc_req_lsu $end
$var wire 1 8 fetch_enable_i $end
$var wire 1 [" handle_irq $end
$var wire 1 "" id_in_ready_o $end
$var wire 1 \" illegal_dret $end
$var wire 1 ]" illegal_insn_d $end
$var wire 1 ; illegal_insn_i $end
$var wire 1 ^" illegal_umode $end
$var wire 16 _" instr_compressed_i [15:0] $end
$var wire 1 `" instr_fetch_err $end
$var wire 1 = instr_fetch_err_i $end
$var wire 32 a" instr_i [31:0] $end
$var wire 1 > instr_is_compressed_i $end
$var wire 1 t instr_valid_clear_o $end
$var wire 1 D instr_valid_i $end
$var wire 1 E irq_nm_i $end
$var wire 1 F irq_pending_i $end
$var wire 1 b" load_err_d $end
$var wire 1 I load_err_i $end
$var wire 32 c" lsu_addr_last_i [31:0] $end
$var wire 1 d" mret_insn $end
$var wire 32 e" pc_id_i [31:0] $end
$var wire 2 f" priv_mode_i [1:0] $end
$var wire 1 ] rst_ni $end
$var wire 1 g" special_req $end
$var wire 1 h" stall $end
$var wire 1 O" stall_branch_i $end
$var wire 1 P" stall_jump_i $end
$var wire 1 Q" stall_lsu_i $end
$var wire 1 R" stall_multdiv_i $end
$var wire 1 i" store_err_d $end
$var wire 1 J store_err_i $end
$var wire 1 j" unused_csr_mtip $end
$var wire 1 k" wfi_insn $end
$var wire 1 ` wfi_insn_i $end
$var wire 1 q mret_insn_i $end
$var wire 1 r jump_set_i $end
$var wire 1 %" ecall_insn_i $end
$var wire 1 &" ebrk_insn_i $end
$var wire 1 l" ebreak_into_debug $end
$var wire 1 '" dret_insn_i $end
$var wire 1 8" csr_pipe_flush_i $end
$var reg 32 m" csr_mtval_o [31:0] $end
$var reg 1 7" csr_restore_dret_id_o $end
$var reg 1 6" csr_restore_mret_id_o $end
$var reg 1 5" csr_save_cause_o $end
$var reg 1 4" csr_save_id_o $end
$var reg 1 3" csr_save_if_o $end
$var reg 1 2" ctrl_busy_o $end
$var reg 4 n" ctrl_fsm_cs [3:0] $end
$var reg 4 o" ctrl_fsm_ns [3:0] $end
$var reg 3 p" debug_cause_o [2:0] $end
$var reg 1 +" debug_csr_save_o $end
$var reg 1 q" debug_mode_d $end
$var reg 1 r" debug_mode_q $end
$var reg 6 s" exc_cause_o [5:0] $end
$var reg 2 t" exc_pc_mux_o [1:0] $end
$var reg 1 u" exc_req_q $end
$var reg 1 v" flush_id $end
$var reg 1 w" halt_if $end
$var reg 1 x" illegal_insn_q $end
$var reg 1 u instr_req_o $end
$var reg 1 y" load_err_q $end
$var reg 4 z" mfip_id [3:0] $end
$var reg 1 {" nmi_mode_d $end
$var reg 1 |" nmi_mode_q $end
$var reg 3 }" pc_mux_o [2:0] $end
$var reg 1 k pc_set_o $end
$var reg 1 j perf_jump_o $end
$var reg 1 i perf_tbranch_o $end
$var reg 1 ~" store_err_q $end
$scope function sv2v_cast_89EA8 $end
$var reg 6 !# inp [5:0] $end
$var reg 6 "# sv2v_cast_89EA8 [5:0] $end
$upscope $end
$scope begin gen_mfip_id $end
$upscope $end
$scope begin update_regs $end
$upscope $end
$upscope $end
$scope module decoder_i $end
$var wire 1 9 illegal_c_insn_i $end
$var wire 1 !" illegal_insn_o $end
$var wire 1 ## illegal_reg_rv32e $end
$var wire 32 $# instr [31:0] $end
$var wire 1 @ instr_new_i $end
$var wire 32 %# instr_rdata_i [31:0] $end
$var wire 1 a regfile_we_o $end
$var wire 32 &# zimm_rs1_type_o [31:0] $end
$var wire 5 '# regfile_waddr_o [4:0] $end
$var wire 5 (# regfile_raddr_b_o [4:0] $end
$var wire 5 )# regfile_raddr_a_o [4:0] $end
$var wire 32 *# imm_u_type_o [31:0] $end
$var wire 32 +# imm_s_type_o [31:0] $end
$var wire 32 ,# imm_j_type_o [31:0] $end
$var wire 32 -# imm_i_type_o [31:0] $end
$var wire 32 .# imm_b_type_o [31:0] $end
$var reg 2 /# alu_op_a_mux_sel_o [1:0] $end
$var reg 1 ?" alu_op_b_mux_sel_o $end
$var reg 5 0# alu_operator_o [4:0] $end
$var reg 1 <" branch_in_dec_o $end
$var reg 1 ;" csr_access_o $end
$var reg 1 1# csr_illegal $end
$var reg 2 2# csr_op [1:0] $end
$var reg 2 3# csr_op_o [1:0] $end
$var reg 1 8" csr_pipe_flush_o $end
$var reg 1 1" data_req_o $end
$var reg 1 /" data_sign_extension_o $end
$var reg 2 4# data_type_o [1:0] $end
$var reg 1 -" data_we_o $end
$var reg 1 )" div_en_o $end
$var reg 1 '" dret_insn_o $end
$var reg 1 &" ebrk_insn_o $end
$var reg 1 %" ecall_insn_o $end
$var reg 1 5# illegal_insn $end
$var reg 1 } imm_a_mux_sel_o $end
$var reg 3 6# imm_b_mux_sel_o [2:0] $end
$var reg 1 s jump_in_dec_o $end
$var reg 1 r jump_set_o $end
$var reg 1 q mret_insn_o $end
$var reg 1 p mult_en_o $end
$var reg 2 7# multdiv_operator_o [1:0] $end
$var reg 2 8# multdiv_signed_mode_o [1:0] $end
$var reg 7 9# opcode [6:0] $end
$var reg 2 :# regfile_wdata_sel_o [1:0] $end
$var reg 1 ;# regfile_we $end
$var reg 1 ` wfi_insn_o $end
$scope function sv2v_cast_290A1 $end
$var reg 12 <# inp [11:0] $end
$var reg 12 =# sv2v_cast_290A1 [11:0] $end
$upscope $end
$scope function sv2v_cast_DB892 $end
$var reg 7 ># inp [6:0] $end
$var reg 7 ?# sv2v_cast_DB892 [6:0] $end
$upscope $end
$scope function sv2v_cast_F99D1 $end
$var reg 5 @# inp [4:0] $end
$var reg 5 A# sv2v_cast_F99D1 [4:0] $end
$upscope $end
$scope begin gen_rv32e_reg_check_inactive $end
$upscope $end
$scope begin csr_operand_check $end
$upscope $end
$scope begin csr_pipeline_flushes $end
$upscope $end
$upscope $end
$scope module registers_i $end
$var wire 1 % clk_i $end
$var wire 5 B# raddr_a_i [4:0] $end
$var wire 5 C# raddr_b_i [4:0] $end
$var wire 1 ] rst_ni $end
$var wire 1 ^ test_en_i $end
$var wire 5 D# waddr_a_i [4:0] $end
$var wire 32 E# wdata_a_i [31:0] $end
$var wire 1 b we_a_i $end
$var wire 1024 F# rf_reg [1023:0] $end
$var wire 32 G# rdata_b_o [31:0] $end
$var wire 32 H# rdata_a_o [31:0] $end
$var reg 992 I# rf_reg_tmp [1023:32] $end
$var reg 31 J# we_a_dec [31:1] $end
$scope function sv2v_cast_5 $end
$var reg 5 K# inp [4:0] $end
$var reg 5 L# sv2v_cast_5 [4:0] $end
$upscope $end
$scope begin sv2v_autoblock_3 $end
$var reg 32 M# r [31:0] $end
$upscope $end
$scope begin we_a_decoder $end
$scope begin sv2v_autoblock_2 $end
$var reg 32 N# i [31:0] $end
$upscope $end
$upscope $end
$upscope $end
$scope begin alu_operand_a_mux $end
$upscope $end
$scope begin id_wb_fsm $end
$upscope $end
$scope begin id_wb_pipeline_reg $end
$upscope $end
$scope begin immediate_b_mux $end
$upscope $end
$scope begin regfile_wdata_mux $end
$upscope $end
$upscope $end
$upscope $end
$enddefinitions $end
#0
$dumpvars
bx N#
bx M#
bx L#
bx K#
bx J#
b0 I#
bx H#
bx G#
b0 F#
bx E#
bx D#
bx C#
bx B#
bx A#
bx @#
bx ?#
bx >#
bx =#
bx <#
x;#
bx :#
bx 9#
bx 8#
bx 7#
bx 6#
x5#
bx 4#
bx 3#
bx 2#
x1#
bx 0#
bx /#
bx0 .#
bx -#
bx0 ,#
bx +#
bx000000000000 *#
bx )#
bx (#
bx '#
b0xxxxx &#
bx %#
bx $#
0##
bx "#
bx !#
0~"
b0 }"
0|"
0{"
bx z"
0y"
0x"
0w"
0v"
0u"
b1 t"
b0 s"
0r"
0q"
b1 p"
b0 o"
b0 n"
b0 m"
xl"
xk"
xj"
xi"
0h"
xg"
bx f"
bx e"
xd"
bx c"
xb"
bx a"
x`"
bx _"
x^"
x]"
x\"
x["
xZ"
xY"
xX"
xW"
xV"
xU"
xT"
bx S"
0R"
0Q"
0P"
0O"
0N"
bx M"
0L"
0K"
0J"
0I"
b0x H"
0G"
0F"
0E"
0D"
b0x C"
bx B"
bx A"
x@"
x?"
bx >"
bx ="
x<"
x;"
b0 :"
bx 9"
x8"
07"
06"
05"
04"
03"
12"
x1"
x0"
x/"
bx ."
x-"
b1 ,"
0+"
0*"
x)"
x("
x'"
x&"
x%"
b0 $"
b1 #"
1""
x!"
b0xxxxx ~
x}
bx |
bx {
bx0 z
bx y
bx0 x
bx w
bx000000000000 v
0u
1t
xs
xr
xq
xp
xo
bx n
bx m
b0 l
1k
0j
0i
bx h
bx g
bx f
bx e
bx d
bx c
xb
xa
x`
b0xxxxx _
x^
0]
x\
bx [
bx Z
bx Y
bx X
bx W
bx V
bx U
bx T
bx S
bx R
bx Q
bx P
bx O
bx N
xM
xL
xK
xJ
xI
bx H
xG
xF
xE
xD
0C
bx B
bx A
x@
x?
x>
x=
x<
x;
x:
x9
x8
x7
x6
x5
x4
x3
x2
x1
bx 0
bx /
x.
x-
bx ,
x+
x*
x)
x(
bx '
x&
1%
x$
bx #
bx "
b0x !
$end
#24000
0Y"
0?
0\
0b
0]"
0^"
0["
0X"
b0 ~
b0 J#
b11111 L#
b11111 K#
b100000 N#
b100 "
b100 >"
b10110001111100000101011001100011 !
b10110001111100000101011001100011 C"
1<
1!"
0-
00"
0a
06
0("
0L
0o
0M
0\"
1g"
b1010 z"
0l"
08"
b0 9"
b0 3#
b11100101010 y
b11100101010 -#
b11100101111 w
b11100101111 +#
b111100101110 z
b111100101110 .#
b1110010101011111111000000000000 v
b1110010101011111111000000000000 *#
b11111111011100101010 x
b11111111011100101010 ,#
b11111 _
b11111 &#
b0 N
b0 X
b0 f
b0 H#
b11111 V
b11111 h
b11111 )#
b11111 B#
b0 O
b0 0
b0 Y
b0 e
b0 G#
b1010 W
b1010 g
b1010 (#
b1010 C#
b1111 Z
b1111 d
b1111 '#
b1111 D#
1C
b100 H"
b1 B"
1@"
b101 |
b1100101 9#
b1100101 ?#
b1100101 >#
0`
0%"
0'"
0q
0&"
15#
01"
0.
0/"
b0 /
b0 ."
b0 4#
01
0-"
b0 2#
01#
0;"
0;#
b1 c
b1 :#
b0 Q
b0 m
b0 8#
b0 P
b0 n
b0 7#
0)"
0p
b0 {
b0 6#
1}
1?"
b11 A"
b11 /#
b1111 #
b1111 ="
b1111 0#
0<"
0r
0s
0;
0W"
0d"
0U"
0k"
0V"
0T"
0`"
1Z"
1K"
b1 o"
1k
0u
b101110010110000100100101011100 [
b101110010110000100100101011100 M"
b101110010110000100100101011100 E#
04
0:
b11100001010 '
b11100001010 S"
b10110001111011110110001001100011 ,
17
12
13
b101110010110000100100101011100 T
1^
0)
b10 S
b10 f"
0E
1i"
1J
0=
19
b1110010101011111111011111100101 $#
b1110010101011111111011111100101 B
b1110010101011111111011111100101 a"
b1110010101011111111011111100101 %#
0&
1>
b10010011000110 A
b10010011000110 _"
15
b1000110001011011111011110001100 R
b1000110001011011111011110001100 e"
1$
1G
0K
1@
1*
0D
1(
1j"
1+
1b"
1I
b10110001111100000101011001100011 H
b10110001111100000101011001100011 c"
18
1F
b10010000101010011010100100100 U
#25000
0%
#26000
1]
#50000
b100 o"
1k
1u
1~"
1y"
b1 n"
b100000 M#
1%
#74000
1Y"
1]"
1["
b11111 L#
b11111 K#
b100000 N#
0<
b1110 z"
b1000001100 y
b1000001100 -#
b1000000110 w
b1000000110 +#
b1000000110 z
b1000000110 .#
b100000110001001011000000000000 v
b100000110001001011000000000000 *#
b1001011001000001100 x
b1001011001000001100 ,#
b1001 _
b1001 &#
b1001 V
b1001 h
b1001 )#
b1001 B#
b1100 W
b1100 g
b1100 (#
b1100 C#
b110 Z
b110 d
b110 '#
b110 D#
0C
b1000001 9#
b1000001 ?#
b1000001 >#
15#
0K"
1;
b10001001100000111011100000010011 !
b10001001100000111011100000010011 C"
b100 o"
1k
b11011110011101010000001010111100 [
b11011110011101010000001010111100 M"
b11011110011101010000001010111100 E#
1:
b101010101001111 '
b101010101001111 S"
b1000010111100100100000110000101 ,
03
b11011110011101010000001010111100 T
0^
1E
09
b100000110001001011001101000001 $#
b100000110001001011001101000001 B
b100000110001001011001101000001 a"
b100000110001001011001101000001 %#
0>
b100110000111100 A
b100110000111100 _"
05
b101000010010110010100001010 R
b101000010010110010100001010 e"
1K
0@
0*
1D
b10001001100000111011100000010011 H
b10001001100000111011100000010011 c"
08
b1010101011110000100010110101010 U
#75000
0%
#100000
0""
1v"
1w"
b111 o"
0k
1x"
1u"
b100 n"
b100000 M#
1%
#124000
1X"
b11111 L#
b11111 K#
b100000 N#
b10010110010 "
b10010110010 >"
1<
b1011 z"
b10010110010 y
b10010110010 -#
b10010111111 w
b10010111111 +#
b110010111110 z
b110010111110 .#
b1001011001000010010000000000000 v
b1001011001000010010000000000000 *#
b10010010010110010 x
b10010010010110010 ,#
b10 _
b10 &#
b10 V
b10 h
b10 )#
b10 B#
b10010 W
b10010 g
b10010 (#
b10010 C#
b11111 Z
b11111 d
b11111 '#
b11111 D#
1C
b10010110010 H"
b11 B"
b0 |
b10110 9#
b10110 ?#
b10110 >#
15#
0Z"
1K"
b0 !
b0 C"
1v"
1w"
b1000 o"
b110110111001011000000101101101 [
b110110111001011000000101101101 M"
b110110111001011000000101101101 E#
14
b100001111000 '
b100001111000 S"
b1000010110110010010111110000101 ,
13
b110110111001011000000101101101 T
b1 S
b1 f"
0i"
0J
b1001011001000010010111110010110 $#
b1001011001000010010111110010110 B
b1001011001000010010111110010110 a"
b1001011001000010010111110010110 %#
1&
1>
b11111011010000 A
b11111011010000 _"
15
b1000100110111100011011110001001 R
b1000100110111100011011110001001 e"
0G
1@
0j"
0+
0b"
0I
b1101100100111000100101111011001 H
b1101100100111000100101111011001 c"
18
b10111111001000110011001001111110 U
#125000
0%
#150000
1""
b101 o"
1q"
b100 ,"
b100 p"
15"
1+"
13"
b10 #"
b10 t"
1k
b10 l
b10 }"
1v"
0w"
0~"
0y"
b1000 n"
b100000 M#
1%
#174000
0Y"
0]"
b11111 L#
b11111 K#
b100000 N#
b100 "
b100 >"
b11000011001111110011100010000110 !
b11000011001111110011100010000110 C"
b1101 z"
1K"
1l"
1Z"
b101001 9#
b101001 ?#
b101001 >#
15#
b101001100 y
b101001100 -#
b101000010 w
b101000010 +#
b101000010 z
b101000010 .#
b10100110011111100000000000000 v
b10100110011111100000000000000 *#
b11111100000101001100 x
b11111100000101001100 ,#
b11111 _
b11111 &#
b11111 V
b11111 h
b11111 )#
b11111 B#
b1100 W
b1100 g
b1100 (#
b1100 C#
b10 Z
b10 d
b10 '#
b10 D#
0C
b100 H"
b1 B"
b101 |
0;
1q"
b100 ,"
b100 p"
1+"
1v"
b101 o"
b10 #"
b10 t"
1k
b10 l
b10 }"
15"
13"
b11101000011101000000110011010000 [
b11101000011101000000110011010000 M"
b11101000011101000000110011010000 E#
b11110010011010 '
b11110010011010 S"
b1101110010111011010110111011100 ,
07
03
b11101000011101000000110011010000 T
1)
b11 S
b11 f"
1i"
1J
19
b10100110011111100000100101001 $#
b10100110011111100000100101001 B
b10100110011111100000100101001 a"
b10100110011111100000100101001 %#
0&
0>
b11011011001011 A
b11011011001011 _"
b100010001010010000110101000100 R
b100010001010010000110101000100 e"
1G
1*
0D
0(
b11000011001111110011100010000110 H
b11000011001111110011100010000110 c"
08
0F
b10011111111100101010111000111111 U
#175000
0%
#200000
0["
0X"
b1 ,"
b1 p"
0+"
0v"
b1 #"
b1 t"
0k
b0 l
b0 }"
05"
03"
0x"
0u"
1~"
1*"
1r"
b101 n"
b100000 M#
1%
#224000
0g"
b11111 L#
b11111 K#
b100000 N#
b1110 z"
0l"
0Z"
b110110 9#
b110110 ?#
b110110 >#
15#
b10110110001 y
b10110110001 -#
b10110111011 w
b10110111011 +#
b110110111010 z
b110110111010 .#
b1011011000101110010000000000000 v
b1011011000101110010000000000000 *#
b1110010110110110000 x
b1110010110110110000 ,#
b1110 _
b1110 &#
b1110 V
b1110 h
b1110 )#
b1110 B#
b10001 W
b10001 g
b10001 (#
b10001 C#
b11011 Z
b11011 d
b11011 '#
b11011 D#
1K"
b10000101001100010011010000001010 !
b10000101001100010011010000001010 C"
b10100011111001101100100101000 [
b10100011111001101100100101000 M"
b10100011111001101100100101000 E#
b100010100011100 '
b100010100011100 S"
b10000100011101111110010000001000 ,
13
b10100011111001101100100101000 T
0)
b1 S
b1 f"
0i"
0J
b1011011000101110010110110110110 $#
b1011011000101110010110110110110 B
b1011011000101110010110110110110 a"
b1011011000101110010110110110110 %#
b10011001101101 A
b10011001101101 _"
b10100110111111001101111001001101 R
b10100110111111001101111001001101 e"
0K
0*
1(
b10000101001100010011010000001010 H
b10000101001100010011010000001010 c"
18
b101011000011101110110101010110 U
#225000
0%
#250000
0~"
b100000 M#
1%
#274000
b1111101001 "
b1111101001 >"
b11111 L#
b11111 K#
b100000 N#
b1111101001 H"
0<
b1100 z"
1l"
b1111101001 y
b1111101001 -#
b1111100110 w
b1111100110 +#
b1111100110 z
b1111100110 .#
b111110100110011000000000000000 v
b111110100110011000000000000000 *#
b10011000101111101000 x
b10011000101111101000 ,#
b10011 _
b10011 &#
b10011 V
b10011 h
b10011 )#
b10011 B#
b1001 W
b1001 g
b1001 (#
b1001 C#
b110 Z
b110 d
b110 '#
b110 D#
b11 B"
b0 |
b1111101 9#
b1111101 ?#
b1111101 >#
15#
0K"
b0 !
b0 C"
b11111101001010001110010011111010 [
b11111101001010001110010011111010 M"
b11111101001010001110010011111010 E#
b1011001010000 '
b1011001010000 S"
b1000011011101111001000110000110 ,
17
b11111101001010001110010011111010 T
1^
1)
b11 S
b11 f"
0E
09
b111110100110011000001101111101 $#
b111110100110011000001101111101 B
b111110100110011000001101111101 a"
b111110100110011000001101111101 %#
b10000111000000 A
b10000111000000 _"
05
b11011100001110110000100110111 R
b11011100001110110000100110111 e"
0G
1K
0@
b10011110101101111100011000111101 H
b10011110101101111100011000111101 c"
08
b10001110001101111001000000011100 U
#275000
0%
#300000
b100000 M#
1%
#324000
b100 "
b100 >"
b11111 L#
b11111 K#
b100000 N#
b11001100000000011011010010011000 !
b11001100000000011011010010011000 C"
b100 H"
1g"
0l"
b11110 9#
b11110 ?#
b11110 >#
15#
b10011110111 y
b10011110111 -#
b10011111111 w
b10011111111 +#
b110011111110 z
b110011111110 .#
b1001111011101011111000000000000 v
b1001111011101011111000000000000 *#
b1011111110011110110 x
b1011111110011110110 ,#
b1011 _
b1011 &#
b1011 V
b1011 h
b1011 )#
b1011 B#
b10111 W
b10111 g
b10111 (#
b10111 C#
b11111 Z
b11111 d
b11111 '#
b11111 D#
b1 B"
b101 |
1Z"
b1011011000010111101110110110110 [
b1011011000010111101110110110110 M"
b1011011000010111101110110110110 E#
04
b1101010110100 '
b1101010110100 S"
b1001001001011111101001110010010 ,
02
03
b1011011000010111101110110110110 T
1=
b1001111011101011111111110011110 $#
b1001111011101011111111110011110 B
b1001111011101011111111110011110 a"
b1001111011101011111111110011110 %#
1&
b1011010100101010 A
b1011010100101010 _"
15
b11110011001101000110011011100110 R
b11110011001101000110011011100110 e"
0$
1G
0(
1j"
1+
1b"
1I
b11001100000000011011010010011000 H
b11001100000000011011010010011000 c"
18
1F
b10010100100110101000101000101001 U
#325000
0%
#350000
1y"
b100000 M#
1%
#374000
1]"
0t
1Y"
0""
b11111 L#
b11111 K#
b100000 N#
1g"
b1000 9#
b1000 ?#
b1000 >#
15#
b10001000110 y
b10001000110 -#
b10001001111 w
b10001001111 +#
b110001001110 z
b110001001110 .#
b1000100011001011110000000000000 v
b1000100011001011110000000000000 *#
b1011110010001000110 x
b1011110010001000110 ,#
b110 W
b110 g
b110 (#
b110 C#
b1111 Z
b1111 d
b1111 '#
b1111 D#
1;
1`"
0Z"
b11011110110011100101111010111101 !
b11011110110011100101111010111101 C"
1w"
b110 o"
b10001111000111001111011000011110 [
b10001111000111001111011000011110 M"
b10001111000111001111011000011110 E#
14
b1110010000110 '
b1110010000110 S"
b1101000101011100001101111010001 ,
07
13
b10001111000111001111011000011110 T
0^
b1 S
b1 f"
b1000100011001011110011110001000 $#
b1000100011001011110011110001000 B
b1000100011001011110011110001000 a"
b1000100011001011110011110001000 %#
1>
b100100001110101 A
b100100001110101 _"
05
b1100100110010000011110111001001 R
b1100100110010000011110111001001 e"
1$
1*
1D
0j"
0+
0b"
0I
b11011110110011100101111010111101 H
b11011110110011100101111010111101 c"
08
0F
b1111101011011011111010111111010 U
#375000
0%
#400000
0g"
1t
b1100100110010000011110111001001 :"
b1100100110010000011110111001001 m"
b1 $"
b1 s"
15"
14"
b11 #"
b11 t"
b10 l
b10 }"
1k
b101 o"
1v"
1w"
0]"
0Y"
1x"
1u"
0y"
b110 n"
b100000 M#
1%
#424000
b11111 L#
b11111 K#
b100000 N#
b1101 z"
b11111 9#
b11111 ?#
b11111 >#
15#
b11111111111111111111100011111000 y
b11111111111111111111100011111000 -#
b11111111111111111111100011111100 w
b11111111111111111111100011111100 +#
b11111111111111111111000011111100 z
b11111111111111111111000011111100 .#
b10001111100011000110000000000000 v
b10001111100011000110000000000000 *#
b11111111111111000110000011111000 x
b11111111111111000110000011111000 ,#
b11000 _
b11000 &#
b11000 V
b11000 h
b11000 )#
b11000 B#
b11000 W
b11000 g
b11000 (#
b11000 C#
b11100 Z
b11100 d
b11100 '#
b11100 D#
0;
0`"
b10101101101011000010001001011011 !
b10101101101011000010001001011011 C"
1v"
1w"
b101 o"
b10 $"
b10 s"
b11 #"
b11 t"
1k
b10 l
b10 }"
b1000010111001000 :"
b1000010111001000 m"
15"
14"
b101010110000101101010101010101 [
b101010110000101101010101010101 M"
b101010110000101101010101010101 E#
0:
b10001000100111 '
b10001000100111 S"
b1010110101101000000001110101101 ,
17
12
b101010110000101101010101010101 T
1^
0)
b10 S
b10 f"
0=
b10001111100011000110111000011111 $#
b10001111100011000110111000011111 B
b10001111100011000110111000011111 a"
b10001111100011000110111000011111 %#
b1000010111001000 A
b1000010111001000 _"
15
b10101100010010000111100101011 R
b10101100010010000111100101011 e"
0*
0D
1(
b10101101101011000010001001011011 H
b10101101101011000010001001011011 c"
1F
b1101100010001001111100111011000 U
#425000
0%
#450000
1""
1t
0v"
0w"
b0 $"
b0 s"
b1 #"
b1 t"
0k
b0 l
b0 }"
b0 :"
b0 m"
05"
04"
0x"
0u"
b101 n"
b100000 M#
1%
